{
    "deadline_time": "16-02-2021 23:59 +0300",
    "task_names": [
        "sum_mondays",
        "print_mondays",
        "not_working_days",
        "usa_email",
        "random_file_content",
        "random_teams"
    ]
}
