{
    "deadline_time": "24-03-2022 23:59 +0300",
    "task_names": [
        "sorted_home_files",
        "timestamp_random_file",
        "find_timestamp_random_file",
        "zip_archive",
        "config_files"
    ]
}
