
3
3 4
3 4 6
3 4 6 7
3 4 6 7 12
3 4 6 7 12 13
3 4 6 7 12 13 14
3 4 6 7 12 13 14 18
3 4 6 7 12 13 14 18 20
3 4 6 7 12 13 14 20
3 4 6 7 12 13 18
3 4 6 7 12 13 18 20
3 4 6 7 12 13 20
3 4 6 7 12 14
3 4 6 7 12 14 18
3 4 6 7 12 14 18 20
3 4 6 7 12 14 20
3 4 6 7 12 18
3 4 6 7 12 18 20
3 4 6 7 12 20
3 4 6 7 13
3 4 6 7 13 14
3 4 6 7 13 14 18
3 4 6 7 13 14 18 20
3 4 6 7 13 14 20
3 4 6 7 13 18
3 4 6 7 13 18 20
3 4 6 7 13 20
3 4 6 7 14
3 4 6 7 14 18
3 4 6 7 14 18 20
3 4 6 7 14 20
3 4 6 7 18
3 4 6 7 18 20
3 4 6 7 20
3 4 6 12
3 4 6 12 13
3 4 6 12 13 14
3 4 6 12 13 14 18
3 4 6 12 13 14 18 20
3 4 6 12 13 14 20
3 4 6 12 13 18
3 4 6 12 13 18 20
3 4 6 12 13 20
3 4 6 12 14
3 4 6 12 14 18
3 4 6 12 14 18 20
3 4 6 12 14 20
3 4 6 12 18
3 4 6 12 18 20
3 4 6 12 20
3 4 6 13
3 4 6 13 14
3 4 6 13 14 18
3 4 6 13 14 18 20
3 4 6 13 14 20
3 4 6 13 18
3 4 6 13 18 20
3 4 6 13 20
3 4 6 14
3 4 6 14 18
3 4 6 14 18 20
3 4 6 14 20
3 4 6 18
3 4 6 18 20
3 4 6 20
3 4 7
3 4 7 12
3 4 7 12 13
3 4 7 12 13 14
3 4 7 12 13 14 18
3 4 7 12 13 14 18 20
3 4 7 12 13 14 20
3 4 7 12 13 18
3 4 7 12 13 18 20
3 4 7 12 13 20
3 4 7 12 14
3 4 7 12 14 18
3 4 7 12 14 18 20
3 4 7 12 14 20
3 4 7 12 18
3 4 7 12 18 20
3 4 7 12 20
3 4 7 13
3 4 7 13 14
3 4 7 13 14 18
3 4 7 13 14 18 20
3 4 7 13 14 20
3 4 7 13 18
3 4 7 13 18 20
3 4 7 13 20
3 4 7 14
3 4 7 14 18
3 4 7 14 18 20
3 4 7 14 20
3 4 7 18
3 4 7 18 20
3 4 7 20
3 4 12
3 4 12 13
3 4 12 13 14
3 4 12 13 14 18
3 4 12 13 14 18 20
3 4 12 13 14 20
3 4 12 13 18
3 4 12 13 18 20
3 4 12 13 20
3 4 12 14
3 4 12 14 18
3 4 12 14 18 20
3 4 12 14 20
3 4 12 18
3 4 12 18 20
3 4 12 20
3 4 13
3 4 13 14
3 4 13 14 18
3 4 13 14 18 20
3 4 13 14 20
3 4 13 18
3 4 13 18 20
3 4 13 20
3 4 14
3 4 14 18
3 4 14 18 20
3 4 14 20
3 4 18
3 4 18 20
3 4 20
3 6
3 6 7
3 6 7 12
3 6 7 12 13
3 6 7 12 13 14
3 6 7 12 13 14 18
3 6 7 12 13 14 18 20
3 6 7 12 13 14 20
3 6 7 12 13 18
3 6 7 12 13 18 20
3 6 7 12 13 20
3 6 7 12 14
3 6 7 12 14 18
3 6 7 12 14 18 20
3 6 7 12 14 20
3 6 7 12 18
3 6 7 12 18 20
3 6 7 12 20
3 6 7 13
3 6 7 13 14
3 6 7 13 14 18
3 6 7 13 14 18 20
3 6 7 13 14 20
3 6 7 13 18
3 6 7 13 18 20
3 6 7 13 20
3 6 7 14
3 6 7 14 18
3 6 7 14 18 20
3 6 7 14 20
3 6 7 18
3 6 7 18 20
3 6 7 20
3 6 12
3 6 12 13
3 6 12 13 14
3 6 12 13 14 18
3 6 12 13 14 18 20
3 6 12 13 14 20
3 6 12 13 18
3 6 12 13 18 20
3 6 12 13 20
3 6 12 14
3 6 12 14 18
3 6 12 14 18 20
3 6 12 14 20
3 6 12 18
3 6 12 18 20
3 6 12 20
3 6 13
3 6 13 14
3 6 13 14 18
3 6 13 14 18 20
3 6 13 14 20
3 6 13 18
3 6 13 18 20
3 6 13 20
3 6 14
3 6 14 18
3 6 14 18 20
3 6 14 20
3 6 18
3 6 18 20
3 6 20
3 7
3 7 12
3 7 12 13
3 7 12 13 14
3 7 12 13 14 18
3 7 12 13 14 18 20
3 7 12 13 14 20
3 7 12 13 18
3 7 12 13 18 20
3 7 12 13 20
3 7 12 14
3 7 12 14 18
3 7 12 14 18 20
3 7 12 14 20
3 7 12 18
3 7 12 18 20
3 7 12 20
3 7 13
3 7 13 14
3 7 13 14 18
3 7 13 14 18 20
3 7 13 14 20
3 7 13 18
3 7 13 18 20
3 7 13 20
3 7 14
3 7 14 18
3 7 14 18 20
3 7 14 20
3 7 18
3 7 18 20
3 7 20
3 12
3 12 13
3 12 13 14
3 12 13 14 18
3 12 13 14 18 20
3 12 13 14 20
3 12 13 18
3 12 13 18 20
3 12 13 20
3 12 14
3 12 14 18
3 12 14 18 20
3 12 14 20
3 12 18
3 12 18 20
3 12 20
3 13
3 13 14
3 13 14 18
3 13 14 18 20
3 13 14 20
3 13 18
3 13 18 20
3 13 20
3 14
3 14 18
3 14 18 20
3 14 20
3 18
3 18 20
3 20
4
4 6
4 6 7
4 6 7 12
4 6 7 12 13
4 6 7 12 13 14
4 6 7 12 13 14 18
4 6 7 12 13 14 18 20
4 6 7 12 13 14 20
4 6 7 12 13 18
4 6 7 12 13 18 20
4 6 7 12 13 20
4 6 7 12 14
4 6 7 12 14 18
4 6 7 12 14 18 20
4 6 7 12 14 20
4 6 7 12 18
4 6 7 12 18 20
4 6 7 12 20
4 6 7 13
4 6 7 13 14
4 6 7 13 14 18
4 6 7 13 14 18 20
4 6 7 13 14 20
4 6 7 13 18
4 6 7 13 18 20
4 6 7 13 20
4 6 7 14
4 6 7 14 18
4 6 7 14 18 20
4 6 7 14 20
4 6 7 18
4 6 7 18 20
4 6 7 20
4 6 12
4 6 12 13
4 6 12 13 14
4 6 12 13 14 18
4 6 12 13 14 18 20
4 6 12 13 14 20
4 6 12 13 18
4 6 12 13 18 20
4 6 12 13 20
4 6 12 14
4 6 12 14 18
4 6 12 14 18 20
4 6 12 14 20
4 6 12 18
4 6 12 18 20
4 6 12 20
4 6 13
4 6 13 14
4 6 13 14 18
4 6 13 14 18 20
4 6 13 14 20
4 6 13 18
4 6 13 18 20
4 6 13 20
4 6 14
4 6 14 18
4 6 14 18 20
4 6 14 20
4 6 18
4 6 18 20
4 6 20
4 7
4 7 12
4 7 12 13
4 7 12 13 14
4 7 12 13 14 18
4 7 12 13 14 18 20
4 7 12 13 14 20
4 7 12 13 18
4 7 12 13 18 20
4 7 12 13 20
4 7 12 14
4 7 12 14 18
4 7 12 14 18 20
4 7 12 14 20
4 7 12 18
4 7 12 18 20
4 7 12 20
4 7 13
4 7 13 14
4 7 13 14 18
4 7 13 14 18 20
4 7 13 14 20
4 7 13 18
4 7 13 18 20
4 7 13 20
4 7 14
4 7 14 18
4 7 14 18 20
4 7 14 20
4 7 18
4 7 18 20
4 7 20
4 12
4 12 13
4 12 13 14
4 12 13 14 18
4 12 13 14 18 20
4 12 13 14 20
4 12 13 18
4 12 13 18 20
4 12 13 20
4 12 14
4 12 14 18
4 12 14 18 20
4 12 14 20
4 12 18
4 12 18 20
4 12 20
4 13
4 13 14
4 13 14 18
4 13 14 18 20
4 13 14 20
4 13 18
4 13 18 20
4 13 20
4 14
4 14 18
4 14 18 20
4 14 20
4 18
4 18 20
4 20
6
6 7
6 7 12
6 7 12 13
6 7 12 13 14
6 7 12 13 14 18
6 7 12 13 14 18 20
6 7 12 13 14 20
6 7 12 13 18
6 7 12 13 18 20
6 7 12 13 20
6 7 12 14
6 7 12 14 18
6 7 12 14 18 20
6 7 12 14 20
6 7 12 18
6 7 12 18 20
6 7 12 20
6 7 13
6 7 13 14
6 7 13 14 18
6 7 13 14 18 20
6 7 13 14 20
6 7 13 18
6 7 13 18 20
6 7 13 20
6 7 14
6 7 14 18
6 7 14 18 20
6 7 14 20
6 7 18
6 7 18 20
6 7 20
6 12
6 12 13
6 12 13 14
6 12 13 14 18
6 12 13 14 18 20
6 12 13 14 20
6 12 13 18
6 12 13 18 20
6 12 13 20
6 12 14
6 12 14 18
6 12 14 18 20
6 12 14 20
6 12 18
6 12 18 20
6 12 20
6 13
6 13 14
6 13 14 18
6 13 14 18 20
6 13 14 20
6 13 18
6 13 18 20
6 13 20
6 14
6 14 18
6 14 18 20
6 14 20
6 18
6 18 20
6 20
7
7 12
7 12 13
7 12 13 14
7 12 13 14 18
7 12 13 14 18 20
7 12 13 14 20
7 12 13 18
7 12 13 18 20
7 12 13 20
7 12 14
7 12 14 18
7 12 14 18 20
7 12 14 20
7 12 18
7 12 18 20
7 12 20
7 13
7 13 14
7 13 14 18
7 13 14 18 20
7 13 14 20
7 13 18
7 13 18 20
7 13 20
7 14
7 14 18
7 14 18 20
7 14 20
7 18
7 18 20
7 20
12
12 13
12 13 14
12 13 14 18
12 13 14 18 20
12 13 14 20
12 13 18
12 13 18 20
12 13 20
12 14
12 14 18
12 14 18 20
12 14 20
12 18
12 18 20
12 20
13
13 14
13 14 18
13 14 18 20
13 14 20
13 18
13 18 20
13 20
14
14 18
14 18 20
14 20
18
18 20
20
