
1
1 3
1 3 7
1 3 7 8
1 3 7 8 9
1 3 7 8 9 10
1 3 7 8 9 10 13
1 3 7 8 9 10 13 20
1 3 7 8 9 10 20
1 3 7 8 9 13
1 3 7 8 9 13 20
1 3 7 8 9 20
1 3 7 8 10
1 3 7 8 10 13
1 3 7 8 10 13 20
1 3 7 8 10 20
1 3 7 8 13
1 3 7 8 13 20
1 3 7 8 20
1 3 7 9
1 3 7 9 10
1 3 7 9 10 13
1 3 7 9 10 13 20
1 3 7 9 10 20
1 3 7 9 13
1 3 7 9 13 20
1 3 7 9 20
1 3 7 10
1 3 7 10 13
1 3 7 10 13 20
1 3 7 10 20
1 3 7 13
1 3 7 13 20
1 3 7 20
1 3 8
1 3 8 9
1 3 8 9 10
1 3 8 9 10 13
1 3 8 9 10 13 20
1 3 8 9 10 20
1 3 8 9 13
1 3 8 9 13 20
1 3 8 9 20
1 3 8 10
1 3 8 10 13
1 3 8 10 13 20
1 3 8 10 20
1 3 8 13
1 3 8 13 20
1 3 8 20
1 3 9
1 3 9 10
1 3 9 10 13
1 3 9 10 13 20
1 3 9 10 20
1 3 9 13
1 3 9 13 20
1 3 9 20
1 3 10
1 3 10 13
1 3 10 13 20
1 3 10 20
1 3 13
1 3 13 20
1 3 20
1 7
1 7 8
1 7 8 9
1 7 8 9 10
1 7 8 9 10 13
1 7 8 9 10 13 20
1 7 8 9 10 20
1 7 8 9 13
1 7 8 9 13 20
1 7 8 9 20
1 7 8 10
1 7 8 10 13
1 7 8 10 13 20
1 7 8 10 20
1 7 8 13
1 7 8 13 20
1 7 8 20
1 7 9
1 7 9 10
1 7 9 10 13
1 7 9 10 13 20
1 7 9 10 20
1 7 9 13
1 7 9 13 20
1 7 9 20
1 7 10
1 7 10 13
1 7 10 13 20
1 7 10 20
1 7 13
1 7 13 20
1 7 20
1 8
1 8 9
1 8 9 10
1 8 9 10 13
1 8 9 10 13 20
1 8 9 10 20
1 8 9 13
1 8 9 13 20
1 8 9 20
1 8 10
1 8 10 13
1 8 10 13 20
1 8 10 20
1 8 13
1 8 13 20
1 8 20
1 9
1 9 10
1 9 10 13
1 9 10 13 20
1 9 10 20
1 9 13
1 9 13 20
1 9 20
1 10
1 10 13
1 10 13 20
1 10 20
1 13
1 13 20
1 20
3
3 7
3 7 8
3 7 8 9
3 7 8 9 10
3 7 8 9 10 13
3 7 8 9 10 13 20
3 7 8 9 10 20
3 7 8 9 13
3 7 8 9 13 20
3 7 8 9 20
3 7 8 10
3 7 8 10 13
3 7 8 10 13 20
3 7 8 10 20
3 7 8 13
3 7 8 13 20
3 7 8 20
3 7 9
3 7 9 10
3 7 9 10 13
3 7 9 10 13 20
3 7 9 10 20
3 7 9 13
3 7 9 13 20
3 7 9 20
3 7 10
3 7 10 13
3 7 10 13 20
3 7 10 20
3 7 13
3 7 13 20
3 7 20
3 8
3 8 9
3 8 9 10
3 8 9 10 13
3 8 9 10 13 20
3 8 9 10 20
3 8 9 13
3 8 9 13 20
3 8 9 20
3 8 10
3 8 10 13
3 8 10 13 20
3 8 10 20
3 8 13
3 8 13 20
3 8 20
3 9
3 9 10
3 9 10 13
3 9 10 13 20
3 9 10 20
3 9 13
3 9 13 20
3 9 20
3 10
3 10 13
3 10 13 20
3 10 20
3 13
3 13 20
3 20
7
7 8
7 8 9
7 8 9 10
7 8 9 10 13
7 8 9 10 13 20
7 8 9 10 20
7 8 9 13
7 8 9 13 20
7 8 9 20
7 8 10
7 8 10 13
7 8 10 13 20
7 8 10 20
7 8 13
7 8 13 20
7 8 20
7 9
7 9 10
7 9 10 13
7 9 10 13 20
7 9 10 20
7 9 13
7 9 13 20
7 9 20
7 10
7 10 13
7 10 13 20
7 10 20
7 13
7 13 20
7 20
8
8 9
8 9 10
8 9 10 13
8 9 10 13 20
8 9 10 20
8 9 13
8 9 13 20
8 9 20
8 10
8 10 13
8 10 13 20
8 10 20
8 13
8 13 20
8 20
9
9 10
9 10 13
9 10 13 20
9 10 20
9 13
9 13 20
9 20
10
10 13
10 13 20
10 20
13
13 20
20
